…
### bagCheck {#bagcheck}

Running `bagCheck` ensures species "bag" values are in order. This function searches for values in species group columns that are not typical or expected by the FWS. If a value outside of the normal range is detected, an output tibble is created. Each row in the output contains the state, species, unusual stratum value, and a list of the normal values we would expect.

If a value for a species group is given in the HIP data that doesn't match anything in our records, the species reported in the output will have NA values in the "normal_strata" column. These species are not hunted in the reported states.


``` r
bagCheck(deduplicated_data)
#> Joining with `by = join_by(dl_state, spp)`
#> Joining with `by = join_by(dl_state, spp, stateBagValue)`
#> # A tibble: 97 × 6
#>    dl_state spp          bad_bag_value expected_bag_value     n proportion
#>    <chr>    <chr>        <chr>         <chr>              <int> <chr>     
#>  1 TX       geese_bag    0             2, 3, 4                3 1%        
#>  2 AL       dove_bag     9             1, 2, 3, 5             1 0%        
#>  3 IL       dove_bag     9             1, 2, 3, 5             1 0%        
#>  4 KS       dove_bag     9             1, 2, 3, 5             2 1%        
#>  5 ME       woodcock_bag 9             1, 2, 3, 5             1 0%        
#>  6 ND       dove_bag     9             1, 2, 3, 5             1 0%        
#>  7 NV       dove_bag     9             1, 2, 3, 5             2 1%        
#>  8 WV       woodcock_bag 9             1, 2, 3, 5             1 0%        
#>  9 IN       woodcock_bag 9             1, 2, 3, 4, 5          1 0%        
#> 10 CA       geese_bag    9             1, 2, 3, 4             1 0%        
#> # ℹ 87 more rows
```
…
<div class="figure" style="text-align: center">
<img src="image/errorPlot_dl.png" alt="errorPlot_dl example output" width="70%" />
<p class="caption">errorPlot_dl example output</p>
</div>

### errorTable {#errortable}

The `errorTable` function is a flexible way to obtain error data as a tibble, which can be assessed as needed or exported to create records of download cycle errors. The basic function reports errors by both location and field.


``` r
errorTable(proofed_data)
#> # A tibble: 293 × 3
#>    dl_state error     error_count
#>    <chr>    <chr>           <int>
#>  1 AK       email               4
#>  2 AK       firstname         206
#>  3 AK       lastname          205
#>  4 AK       middle             69
#>  5 AK       suffix            208
#>  6 AK       zip               110
#>  7 AL       email               5
#>  8 AL       firstname         203
#>  9 AL       lastname          198
#> 10 AL       middle             70
#> # ℹ 283 more rows
```

Errors can be reported by only location by turning off the `field` parameter.


``` r
errorTable(proofed_data, field = "none")
#> # A tibble: 49 × 2
#>    dl_state error_count
#>    <chr>          <int>
#>  1 AK               802
#>  2 AL               795
#>  3 AR               828
#>  4 AZ               865
#>  5 CA               823
#>  6 CO               766
#>  7 CT               807
#>  8 DE               811
#>  9 FL               834
#> 10 GA               795
#> # ℹ 39 more rows
```
…
