The migbirdHarvestData Workflow
…
outOfStateHunters

outOfStateHunters(DL1202_proofed)

## [[1]]
## # A tibble: 30 x 2
##    dl_state out_of_state
##    <chr>           <int>
##  1 AK                 43
##  2 AL               1031
##  3 AR               4245
##  4 CA                234
##  5 CO                165
##  6 CT                 11
##  7 FL                331
##  8 GA                428
##  9 IA                169
## 10 ID                405
## # ... with 20 more rows
## 
## [[2]]
…
Stage 3: Explore Errors

errorTable

The errorTable function is a flexible way to obtain error data as a tibble, which can be assessed as needed or exported to create records of download cycle errors. The basic function reports errors by both location and field.

errorTable(DL1202_proofed)

## # A tibble: 275 x 3
##    state error           error_count
##    <chr> <chr>                 <dbl>
##  1 AK    birth_date                2
##  2 AK    zip                      29
##  3 AL    birth_date              207
##  4 AL    city                      1
##  5 AL    email                     6
##  6 AL    firstname                 5
##  7 AL    suffix                   23
##  8 AL    zip                      67
##  9 AR    birth_date              128
## 10 AR    coots_snipe_bag           1
## # ... with 265 more rows

Errors can be reported by only location by turning off the field parameter.

errorTable(DL1202_proofed, field = "none")

## # A tibble: 52 x 2
##    state error_count
##    <chr>       <dbl>
##  1 AK             31
##  2 AL            309
##  3 AR            384
##  4 AZ              9
##  5 CA            496
##  6 CO            227
##  7 CT            117
##  8 DC             20
##  9 DE            183
## 10 FL            119
## # ... with 42 more rows
…
