…
### strataCheck

Running `strataCheck` ensures species "bag" values are in order. This function searches for values in species group columns that are not typical or expected by the FWS. If a value outside of the normal range is detected, an output tibble is created. Each row in the output contains the state, species, unusual stratum value, and a list of the normal values we would expect.

If a value for a species group is given in the HIP data that doesn't match anything in our records, the species reported in the output will have NA values in the "normal_strata" column. These species are not hunted in the reported states.


```r
strataCheck(DL1202_fixed)
```

```
## # A tibble: 442 x 4
##    dl_state spp                state_strata normal_strata
##    <chr>    <chr>              <chr>        <chr>        
##  1 TX       dove_bag           ""           2, 3, 5      
##  2 OR       dove_bag           "0"          1, 2, 3, 5   
##  3 OR       dove_bag           ""           1, 2, 3, 5   
##  4 OR       ducks_bag          "0"          1, 2, 3, 4   
##  5 OR       ducks_bag          ""           1, 2, 3, 4   
##  6 OR       geese_bag          "0"          1, 2, 3, 4   
##  7 OR       geese_bag          ""           1, 2, 3, 4   
##  8 OR       band_tailed_pigeon "0"          1, 2         
##  9 OR       band_tailed_pigeon ""           1, 2         
## 10 OR       brant              "0"          1, 2         
## # ... with 432 more rows
```

### validate

The `validate` function looks for repeated values in two dimensions, both horizontally and vertically.

<b>Horizontally.</b> The horizontal check for repetition looks across records and finds any rows with same value in each species group column. Details in the output tibble include: the repeated value (h_value), number of records with repeats (h_rep), total number of records (h_total), and proportion of repeated values per file (prop_repeat). The default version of this function (`all = FALSE`) only checks ducks, geese, dove, and woodcock bags. If the parameter is set to `all = TRUE`, every species group will be checked.


```r
validate(DL1202_fixed, type = "horizontal")
```

```
## # A tibble: 66 x 5
##    source_file    h_value h_rep h_total prop_repeat
##    <chr>          <chr>   <int>   <int>       <dbl>
##  1 WI20201216.txt 1         462     546       0.846
##  2 AL20201216.txt 1        5796    7080       0.819
##  3 MI20201216.txt 1         343     419       0.819
##  4 SC20201202.txt 1        6320    7841       0.806
##  5 MS20201215.txt 1        6708    8929       0.751
##  6 MO20201216.txt 1        1848    2621       0.705
##  7 RI20201216.txt 1         101     157       0.643
##  8 CT20201216.txt 1          74     116       0.638
##  9 OH20201216.txt 1         629    1057       0.595
## 10 MN20201216.txt 1         731    1279       0.572
## # ... with 56 more rows
```
…
## Part C: Data Visualization and Tabulation

### outOfStateHunters

The `outOfStateHunters` function plots and tabulates how many hunters registered in a download state that does not match the state, province, or territory of their address. This function plots proportion of out-of-staters with counts as bar labels. The tibble contains counts and proportions by state.


```r
outOfStateHunters(DL1202_proofed)
```

<img src="figure/outofstate-1.png" title="Figure 6. Plot of proportions of out-of-state hunters." alt="Figure 6. Plot of proportions of out-of-state hunters." width="500" style="display: block; margin: auto;" />

```
## # A tibble: 31 x 3
##    dl_state n_total outofstate_prop
##    <chr>      <int>           <dbl>
##  1 AK           106            0.41
##  2 AL          7056            0.15
##  3 AR          6569            0.65
##  4 CA          3998            0.06
##  5 CO          1749            0.1 
##  6 CT           114            0.11
##  7 FL          3654            0.09
##  8 GA          3591            0.12
##  9 IA          3236            0.06
## 10 ID          1881            0.22
## # ... with 21 more rows
```
…
<img src="image/errorPlot_dl.png" title="errorPlot_dl example output" alt="errorPlot_dl example output" width="70%" style="display: block; margin: auto;" />

### errorTable

The `errorTable` function is a flexible way to obtain error data as a tibble, which can be assessed as needed or exported to create records of download cycle errors. The basic function reports errors by both location and field.


```r
errorTable(DL1202_proofed)
```

```
## # A tibble: 399 x 3
##    dl_state error      error_count
##    <chr>    <chr>            <dbl>
##  1 AK       birth_date           2
##  2 AK       email               55
##  3 AK       zip                 32
##  4 AL       birth_date         190
##  5 AL       city                 1
##  6 AL       email             1618
##  7 AL       firstname            7
##  8 AL       lastname             1
##  9 AL       suffix              10
## 10 AL       zip                 25
## # ... with 389 more rows
```

Errors can be reported by only location by turning off the `field` parameter.


```r
errorTable(DL1202_proofed, field = "none")
```

```
## # A tibble: 31 x 2
##    dl_state error_count
##    <chr>          <dbl>
##  1 AK                89
##  2 AL              1852
##  3 AR              1236
##  4 CA              1907
##  5 CO               743
##  6 CT               134
##  7 FL               205
##  8 GA               518
##  9 IA              5236
## 10 ID               730
## # ... with 21 more rows
```

Errors can be reported by only field by turning off the `loc` parameter.


```r
errorTable(DL1202_proofed, loc = "none")
```

```
## # A tibble: 21 x 2
##    error              error_count
##    <chr>                    <dbl>
##  1 band_tailed_pigeon         290
##  2 birth_date                5577
##  3 brant                      290
##  4 city                       293
##  5 coots_snipe                348
##  6 cranes                     339
##  7 dove_bag                   401
##  8 ducks_bag                 3396
##  9 email                    23909
## 10 firstname                  109
## # ... with 11 more rows
```
…
