The migbirdHIP Workflow
…
## Error: 110 records detected with a value other than 2 for hunt_mig_birds.

## # A tibble: 41 × 3
##    source_file        hunt_mig_birds     n
##    <chr>              <chr>          <int>
##  1 "\\AL20250821.txt" 1                  2
##  2 "\\AR20250814.txt" 1                  3
##  3 "\\AZ20250815.txt" 1                  3
##  4 "\\CA20250813.txt" 1                  2
##  5 "\\CO20250808.txt" 1                  2
##  6 "\\CT20250826.txt" 1                  3
##  7 "\\DE20250903.txt" 1                  3
##  8 "\\FL20250823.txt" 1                  3
##  9 "\\IA20250827.txt" 1                  4
## 10 "\\ID20250804.txt" 1                  2
## # ℹ 31 more rows
…
Running bagCheck() ensures species “bag” values are in
order. This function searches for values in species group columns that
are not typical or expected by the US Fish and Wildlife Service. If a
value outside of the normal range is detected, an output tibble is
created. Each row in the output contains the state, species, unusual
stratum value, and a list of the normal values we would expect.

If a value for a species group is given in the HIP data that doesn’t
match anything in our records, the species reported in the output will
have NA values in the normal_strata column.
These species are not hunted in the reported states.

bagCheck(deduplicated_data)

## # A tibble: 84 × 6
##    dl_state spp          bad_bag_value expected_bag_value     n proportion
##    <chr>    <chr>        <chr>         <chr>              <int> <chr>     
##  1 MD       dove_bag     9             2, 3, 5                1 0%        
##  2 AL       dove_bag     9             1, 2, 3, 5             1 0%        
##  3 DE       woodcock_bag 9             1, 2, 3, 5             1 0%        
##  4 IL       dove_bag     9             1, 2, 3, 5             2 1%        
##  5 KY       dove_bag     9             1, 2, 3, 5             1 0%        
##  6 NE       dove_bag     9             1, 2, 3, 5             1 0%        
##  7 NY       woodcock_bag 9             1, 2, 3, 5             1 0%        
##  8 SC       dove_bag     9             1, 2, 3, 5             1 0%        
##  9 TN       woodcock_bag 9             1, 2, 3, 5             1 0%        
## 10 VA       woodcock_bag 9             1, 2, 3, 5             2 1%        
## # ℹ 74 more rows
…
pullErrors(proofed_data, field = "dove_bag")

## Success! All values are correct.

errorTable

The errorTable() function returns error data as a
tibble, which can be assessed as needed or exported to create records of
download cycle errors. The basic function reports errors by both
location and field.

errorTable(proofed_data)

## # A tibble: 234 × 3
##    dl_state error     error_count
##    <chr>    <chr>           <int>
##  1 AK       email               5
##  2 AK       lastname            3
##  3 AK       suffix             74
##  4 AK       zip               124
##  5 AL       email               4
##  6 AL       firstname           7
##  7 AL       lastname            2
##  8 AL       suffix             66
##  9 AL       zip               128
## 10 AR       email               3
## # ℹ 224 more rows

Errors can be reported by only location by turning off the
field parameter.

errorTable(proofed_data, field = "none")

## # A tibble: 49 × 2
##    dl_state error_count
##    <chr>          <int>
##  1 AK               206
##  2 AL               207
##  3 AR               210
##  4 AZ               183
##  5 CA               211
##  6 CO               206
##  7 CT               204
##  8 DE               204
##  9 FL               197
## 10 GA               183
## # ℹ 39 more rows
…
